{
	"info": {
		"_postman_id": "dbec6c74-4f27-4b4e-958a-4129296e4f6e",
		"name": "api-rest",
		"schema": "https://schema.getpostman.com/json/collection/v2.0.0/collection.json",
		"_exporter_id": "26843211"
	},
	"item": [
		{
			"name": "http://localhost:8092/api/v1/cliente/1",
			"request": {
				"method": "GET",
				"header": [],
				"url": "http://localhost:8092/api/v1/cliente/1"
			},
			"response": []
		},
		{
			"name": "http://localhost:8092/api/v1/cliente",
			"request": {
				"method": "POST",
				"header": [],
				"body": {
					"mode": "raw",
					"raw": "{\n    \"nombre\":\"WALTER\",\n    \"apellido\":\"GUTIERREZ\",\n    \"correo\":\"WG@yahoo.com\",\n    \"fechaRegistro\":\"2023-08-01\"\n}",
					"options": {
						"raw": {
							"language": "json"
						}
					}
				},
				"url": "http://localhost:8092/api/v1/cliente"
			},
			"response": []
		},
		{
			"name": "http://localhost:8092/api/v1/cliente",
			"request": {
				"method": "PUT",
				"header": [],
				"body": {
					"mode": "raw",
					"raw": "{\n    \"idCliente\": \"1\",\n    \"nombre\": \"Marcos\",\n    \"apellido\": \"Palma\",\n    \"correo\": \"WG@yahoo.com\",\n    \"fechaRegistro\": \"2023-08-01\"\n}",
					"options": {
						"raw": {
							"language": "json"
						}
					}
				},
				"url": "http://localhost:8092/api/v1/cliente"
			},
			"response": []
		},
		{
			"name": "http://localhost:8092/api/v1/cliente/7",
			"request": {
				"method": "DELETE",
				"header": [],
				"url": "http://localhost:8092/api/v1/cliente/7"
			},
			"response": []
		},
		{
			"name": "http://localhost:8092/api/v1/clientes",
			"request": {
				"method": "GET",
				"header": [],
				"url": "http://localhost:8092/api/v1/clientes"
			},
			"response": []
		}
	]
}